\relax 
\providecommand*\new@tpo@label[2]{}
\catcode `"\active 
\select@language{german}
\@writefile{toc}{\select@language{german}}
\@writefile{lof}{\select@language{german}}
\@writefile{lot}{\select@language{german}}
\@writefile{toc}{\contentsline {chapter}{\numberline {1}Drogen}{5}}
\@writefile{lof}{\addvspace {10\p@ }}
\@writefile{lot}{\addvspace {10\p@ }}
\@writefile{toc}{\contentsline {section}{\numberline {1.1}Brainstorming}{5}}
\@writefile{toc}{\contentsline {section}{\numberline {1.2}Drogen-ABC}{5}}
\@writefile{toc}{\contentsline {subsection}{\numberline {1.2.1}Orientierungspunkte f\IeC {\"u}r Drogen-ABC}{5}}
\@writefile{toc}{\contentsline {subsection}{\numberline {1.2.2}Alkohol}{5}}
\@writefile{toc}{\contentsline {subsubsection}{\nonumberline Herstellung}{5}}
\@writefile{toc}{\contentsline {paragraph}{\nonumberline G\IeC {\"a}rung}{5}}
\@writefile{toc}{\contentsline {paragraph}{\nonumberline Destilation}{5}}
\@writefile{toc}{\contentsline {paragraph}{\nonumberline Weitere Information}{5}}
\@writefile{toc}{\contentsline {subsubsection}{\nonumberline Wirkung}{5}}
\@writefile{toc}{\contentsline {paragraph}{\nonumberline 0,2-0,5\IeC {\textperthousand }}{5}}
\@writefile{toc}{\contentsline {paragraph}{\nonumberline ab 0,5\IeC {\textperthousand }}{5}}
\@writefile{toc}{\contentsline {paragraph}{\nonumberline ab 0,8\IeC {\textperthousand }}{6}}
\@writefile{toc}{\contentsline {paragraph}{\nonumberline 1-2\IeC {\textperthousand }}{6}}
\@writefile{toc}{\contentsline {paragraph}{\nonumberline 2-3\IeC {\textperthousand }}{6}}
\@writefile{toc}{\contentsline {paragraph}{\nonumberline 3-5\IeC {\textperthousand }}{6}}
\@writefile{toc}{\contentsline {subsubsection}{\nonumberline Risiken und Gefahren}{6}}
\@writefile{toc}{\contentsline {subsubsection}{\nonumberline Folgen f\IeC {\"u}r K\IeC {\"o}rper/Psyche/Soziales Umfeld}{6}}
\@writefile{toc}{\contentsline {paragraph}{\nonumberline K\IeC {\"o}rperliche und Psychische Sch\IeC {\"a}den}{6}}
\@writefile{toc}{\contentsline {paragraph}{\nonumberline Soziales Umfeld}{6}}
\@writefile{toc}{\contentsline {subsection}{\numberline {1.2.3}Tabak}{6}}
\@writefile{toc}{\contentsline {subsubsection}{\nonumberline Herstellung}{6}}
\@writefile{toc}{\contentsline {subsubsection}{\nonumberline Wirkung}{6}}
\@writefile{toc}{\contentsline {subsubsection}{\nonumberline Risiken und Gefahren}{7}}
\@writefile{toc}{\contentsline {subsubsection}{\nonumberline Folge f\IeC {\"u}r K\IeC {\"o}rper/Psyche/Soziales Umfeld}{7}}
\@writefile{toc}{\contentsline {subsection}{\numberline {1.2.4}Smart Drugs}{7}}
\@writefile{toc}{\contentsline {subsubsection}{\nonumberline Natural drugs}{7}}
\@writefile{toc}{\contentsline {paragraph}{\nonumberline Herstellung}{7}}
\@writefile{toc}{\contentsline {paragraph}{\nonumberline Wirkung}{7}}
\@writefile{toc}{\contentsline {paragraph}{\nonumberline Risiken und Gefahren}{8}}
\@writefile{toc}{\contentsline {subsubsection}{\nonumberline Smart drugs}{8}}
\@writefile{toc}{\contentsline {subsection}{\numberline {1.2.5}Alkohol in der Schwangerschaft}{8}}
\@writefile{toc}{\contentsline {subsubsection}{\nonumberline Wirkung}{8}}
\@writefile{toc}{\contentsline {subsubsection}{\nonumberline Risiken und Gefahren}{8}}
\@writefile{toc}{\contentsline {subsection}{\numberline {1.2.6}Schlaf- und Beruhigungsmittel}{8}}
\@writefile{toc}{\contentsline {subsubsection}{\nonumberline Wirkwei\IeC {\ss }e}{8}}
\@writefile{toc}{\contentsline {subsubsection}{\nonumberline Risiken und Gefahren}{8}}
\global\@namedef{scr@dte@section@lastmaxnumwidth}{16.77362pt}
\global\@namedef{scr@dte@subsection@lastmaxnumwidth}{24.5495pt}
