\select@language {german}
\contentsline {chapter}{\numberline {1}Begriffe}{5}
\contentsline {chapter}{\numberline {2}Wirtschaftsprozesse}{7}
\contentsline {subsubsection}{\nonumberline Personalabteilung}{8}
\contentsline {subsubsection}{\nonumberline Werkschutz}{8}
