\relax 
\providecommand*\new@tpo@label[2]{}
\catcode `"\active 
\select@language{german}
\@writefile{toc}{\select@language{german}}
\@writefile{lof}{\select@language{german}}
\@writefile{lot}{\select@language{german}}
\@writefile{toc}{\contentsline {chapter}{\numberline {1}Begriffe}{5}}
\@writefile{lof}{\addvspace {10\p@ }}
\@writefile{lot}{\addvspace {10\p@ }}
\@writefile{toc}{\contentsline {chapter}{\numberline {2}Wirtschaftsprozesse}{7}}
\@writefile{lof}{\addvspace {10\p@ }}
\@writefile{lot}{\addvspace {10\p@ }}
\@writefile{toc}{\contentsline {subsubsection}{\nonumberline Personalabteilung}{8}}
\@writefile{toc}{\contentsline {subsubsection}{\nonumberline Werkschutz}{8}}
\global\@namedef{scr@dte@chapter@lastmaxnumwidth}{9.8975pt}
