\relax 
\catcode `"\active 
\select@language{german}
\@writefile{toc}{\select@language{german}}
\@writefile{lof}{\select@language{german}}
\@writefile{lot}{\select@language{german}}
\@writefile{toc}{\contentsline {section}{\numberline {1}Risikosch\IeC {\"u}ler in Mathematik}{1}}
\@writefile{toc}{\contentsline {section}{\numberline {2}Ausgaben pro Sch\IeC {\"u}ler}{2}}
