\select@language {german}
\contentsline {chapter}{\numberline {1}Begriffe}{5}
\contentsline {chapter}{\numberline {2}Materialwirtschaft (materials management)}{7}
\contentsline {chapter}{\numberline {3}Logistik}{9}
\contentsline {section}{\numberline {3.1}Ziele der Logistik}{9}
