\relax 
\providecommand*\new@tpo@label[2]{}
\catcode `"\active 
\select@language{german}
\@writefile{toc}{\select@language{german}}
\@writefile{lof}{\select@language{german}}
\@writefile{lot}{\select@language{german}}
\@writefile{toc}{\contentsline {part}{\numberline {I}Spannende Verfahren}{5}}
\@writefile{toc}{\contentsline {chapter}{\numberline {1}Allgemein}{7}}
\@writefile{lof}{\addvspace {10\p@ }}
\@writefile{lot}{\addvspace {10\p@ }}
\@writefile{toc}{\contentsline {section}{\numberline {1.1}Einflussfaktoren des Spannens}{7}}
\@writefile{toc}{\contentsline {section}{\numberline {1.2}Die Werkzeugschneide}{7}}
\newlabel{img_spannen_keil}{{1.2}{7}}
\@writefile{toc}{\contentsline {subsection}{\numberline {1.2.1}Die Winkel am Schneidteil}{7}}
\newlabel{img_spannen_winkel}{{1.2.1}{8}}
\@writefile{toc}{\contentsline {section}{\numberline {1.3}Die Bewegungen zwischen Werkzeug und Werkst\IeC {\"u}ck}{8}}
\@writefile{toc}{\contentsline {section}{\numberline {1.4}Die Spannbildung}{8}}
\@writefile{toc}{\contentsline {section}{\numberline {1.5}Die Schneidstoffe (Der Werkstoff f\IeC {\"u}r den Schneidkeil)}{8}}
\@writefile{toc}{\contentsline {subsection}{\numberline {1.5.1}Eigenschaften}{8}}
\@writefile{toc}{\contentsline {chapter}{\numberline {2}Die Spannende Formgebung}{9}}
\@writefile{lof}{\addvspace {10\p@ }}
\@writefile{lot}{\addvspace {10\p@ }}
\@writefile{toc}{\contentsline {section}{\numberline {2.1}Von Hand}{9}}
\@writefile{toc}{\contentsline {subsection}{\numberline {2.1.1}Feilen}{9}}
\global\csname @altsecnumformattrue\endcsname
\global\@namedef{scr@dte@chapter@lastmaxnumwidth}{12.95232pt}
\global\@namedef{scr@dte@section@lastmaxnumwidth}{19.55072pt}
\global\@namedef{scr@dte@subsection@lastmaxnumwidth}{27.3266pt}
