\relax 
\catcode `"\active 
\select@language{german}
\@writefile{toc}{\select@language{german}}
\@writefile{lof}{\select@language{german}}
\@writefile{lot}{\select@language{german}}
\@writefile{toc}{\contentsline {paragraph}{}{1}}
\@writefile{toc}{\contentsline {paragraph}{}{1}}
