\select@language {german}
\contentsline {part}{\numberline {I}Buchhaltung}{5}
\contentsline {chapter}{\numberline {1}Steuern}{7}
\contentsline {section}{\numberline {1.1}Allgemein}{7}
\contentsline {section}{\numberline {1.2}Begriffe}{7}
\contentsline {subsection}{\numberline {1.2.1}Einkommenssteuer/Lohnsteuer}{7}
\contentsline {subsubsection}{\nonumberline Steuertarif}{8}
