\relax 
\providecommand*\new@tpo@label[2]{}
\catcode `"\active 
\select@language{german}
\@writefile{toc}{\select@language{german}}
\@writefile{lof}{\select@language{german}}
\@writefile{lot}{\select@language{german}}
\@writefile{toc}{\contentsline {part}{\numberline {I}Buchhaltung}{5}}
\@writefile{toc}{\contentsline {chapter}{\numberline {1}Steuern}{7}}
\@writefile{lof}{\addvspace {10\p@ }}
\@writefile{lot}{\addvspace {10\p@ }}
\@writefile{toc}{\contentsline {section}{\numberline {1.1}Allgemein}{7}}
\@writefile{toc}{\contentsline {section}{\numberline {1.2}Begriffe}{7}}
\@writefile{toc}{\contentsline {subsection}{\numberline {1.2.1}Einkommenssteuer/Lohnsteuer}{7}}
\@writefile{toc}{\contentsline {subsubsection}{\nonumberline Steuertarif}{8}}
\global\csname @altsecnumformattrue\endcsname
\global\@namedef{scr@dte@chapter@lastmaxnumwidth}{12.95232pt}
\global\@namedef{scr@dte@section@lastmaxnumwidth}{19.55072pt}
\global\@namedef{scr@dte@subsection@lastmaxnumwidth}{27.3266pt}
