\select@language {ngerman}
\contentsline {section}{\numberline {1}Dollarzeichen}{2}
\contentsline {section}{\numberline {2}Die Equation Umgebung}{2}
\contentsline {section}{\numberline {3}Die Align Umgebung}{2}
