\relax 
\providecommand*\new@tpo@label[2]{}
\catcode `"\active 
\select@language{ngerman}
\@writefile{toc}{\select@language{ngerman}}
\@writefile{lof}{\select@language{ngerman}}
\@writefile{lot}{\select@language{ngerman}}
\@writefile{toc}{\contentsline {section}{\numberline {1}Dollarzeichen}{2}}
\@writefile{toc}{\contentsline {section}{\numberline {2}Die Equation Umgebung}{2}}
\newlabel{formel1}{{1}{2}}
\@writefile{toc}{\contentsline {section}{\numberline {3}Die Align Umgebung}{2}}
