\relax 
\providecommand*\new@tpo@label[2]{}
\catcode `"\active 
\select@language{german}
\@writefile{toc}{\select@language{german}}
\@writefile{lof}{\select@language{german}}
\@writefile{lot}{\select@language{german}}
\@writefile{toc}{\contentsline {part}{\numberline {I}Teil 1}{5}}
\@writefile{toc}{\contentsline {chapter}{\numberline {1}Kapitel 1}{7}}
\@writefile{lof}{\addvspace {10\p@ }}
\@writefile{lot}{\addvspace {10\p@ }}
\@writefile{toc}{\contentsline {section}{\numberline {1.1}Aufsatz 1}{7}}
\@writefile{toc}{\contentsline {subsection}{\numberline {1.1.1}Einleitung}{7}}
\@writefile{toc}{\contentsline {subsubsection}{\nonumberline Quellen}{7}}
\@writefile{toc}{\contentsline {paragraph}{\nonumberline Quelle 1}{7}}
\@writefile{toc}{\contentsline {subparagraph}{\nonumberline Teil 1}{7}}
\newlabel{ABC}{{\relax 1.1}{7}}
\@writefile{toc}{\contentsline {section}{\numberline {1.2}Kuchen backen}{7}}
\@writefile{toc}{\contentsline {section}{\numberline {1.3}ToDo-List}{7}}
\@writefile{toc}{\contentsline {section}{\numberline {1.4}Physikunterricht}{7}}
\@writefile{toc}{\contentsline {section}{\numberline {1.5}Firmengewinne}{7}}
\newlabel{DEF}{{1.5}{8}}
\@writefile{lof}{\contentsline {figure}{\numberline {\relax 1.1}{\ignorespaces Das ist ein Bild}}{8}}
\global\csname @altsecnumformattrue\endcsname
\global\@namedef{scr@dte@chapter@lastmaxnumwidth}{15.89603pt}
\global\@namedef{scr@dte@section@lastmaxnumwidth}{22.97206pt}
\global\@namedef{scr@dte@subsection@lastmaxnumwidth}{32.1087pt}
