\select@language {german}
\contentsline {part}{\numberline {I}Teil 1}{5}
\contentsline {chapter}{\numberline {1}Kapitel 1}{7}
\contentsline {section}{\numberline {1.1}Aufsatz 1}{7}
\contentsline {subsection}{\numberline {1.1.1}Einleitung}{7}
\contentsline {subsubsection}{\nonumberline Quellen}{7}
\contentsline {paragraph}{\nonumberline Quelle 1}{7}
\contentsline {subparagraph}{\nonumberline Teil 1}{7}
\contentsline {section}{\numberline {1.2}Kuchen backen}{7}
\contentsline {section}{\numberline {1.3}ToDo-List}{7}
\contentsline {section}{\numberline {1.4}Physikunterricht}{7}
\contentsline {section}{\numberline {1.5}Firmengewinne}{7}
