\relax 
\providecommand*\new@tpo@label[2]{}
\catcode `"\active 
\select@language{german}
\@writefile{toc}{\select@language{german}}
\@writefile{lof}{\select@language{german}}
\@writefile{lot}{\select@language{german}}
\@writefile{toc}{\contentsline {part}{\numberline {I}Digitaltechnik}{5}}
\@writefile{toc}{\contentsline {subsubsection}{\nonumberline Digital}{7}}
\@writefile{toc}{\contentsline {paragraph}{\nonumberline Technische Beispiele}{7}}
\@writefile{toc}{\contentsline {subsubsection}{\nonumberline Analog}{7}}
\@writefile{toc}{\contentsline {paragraph}{\nonumberline Beispiele}{7}}
\@writefile{toc}{\contentsline {subsubsection}{\nonumberline Schalter}{8}}
\newlabel{img_schalter_1schalter}{{I}{8}}
\@writefile{lof}{\contentsline {figure}{\numberline {\relax 0.1}{\ignorespaces Schaltkreis mit einem Schalter}}{8}}
\newlabel{img_schalter_2schalter}{{I}{8}}
\@writefile{lof}{\contentsline {figure}{\numberline {\relax 0.2}{\ignorespaces Schaltkreis mit 2 Schaltern}}{8}}
\@writefile{toc}{\contentsline {chapter}{\numberline {1}Boolesche Algebra}{9}}
\@writefile{lof}{\addvspace {10\p@ }}
\@writefile{lot}{\addvspace {10\p@ }}
\@writefile{toc}{\contentsline {subsection}{\numberline {1.0.1}Und $\land $}{9}}
\newlabel{img_schalter_und-schalter}{{1.0.1}{9}}
\@writefile{lof}{\contentsline {figure}{\numberline {\relax 1.1}{\ignorespaces Zeichen f\IeC {\"u}r \glqq Und\grqq }}{9}}
\@writefile{toc}{\contentsline {subsection}{\numberline {1.0.2}Oder $\lor $}{9}}
\@writefile{toc}{\contentsline {subsection}{\numberline {1.0.3}Not $\lnot $}{9}}
\newlabel{img_schalter_oder-schalter}{{1.0.2}{10}}
\@writefile{lof}{\contentsline {figure}{\numberline {\relax 1.2}{\ignorespaces Zeichen f\IeC {\"u}r \glqq Oder\grqq }}{10}}
\newlabel{img_schalter_not-symbol}{{1.0.3}{10}}
\@writefile{lof}{\contentsline {figure}{\numberline {\relax 1.3}{\ignorespaces Zeichen f\IeC {\"u}r \glqq Nicht\grqq }}{10}}
\@writefile{toc}{\contentsline {subsection}{\numberline {1.0.4}\ref  {img_schalter_2schalter} als logischer Ausdruck}{10}}
\@writefile{toc}{\contentsline {section}{\numberline {1.1}Rechenregeln}{10}}
\@writefile{toc}{\contentsline {subsubsection}{\nonumberline Assiotativgestetz}{10}}
\@writefile{toc}{\contentsline {subsubsection}{\nonumberline Kommutativgesetz}{10}}
\@writefile{toc}{\contentsline {subsubsection}{\nonumberline Distributivgesetz}{10}}
\newlabel{img_schalter_schalter-verknuepfung}{{1.0.4}{11}}
\@writefile{lof}{\contentsline {figure}{\numberline {\relax 1.4}{\ignorespaces Der Schaltkreis}}{11}}
\@writefile{toc}{\contentsline {subsubsection}{\nonumberline De Morgan}{11}}
\@writefile{toc}{\contentsline {subsubsection}{\nonumberline Negativ + Negativ}{11}}
\@writefile{toc}{\contentsline {subsubsection}{\nonumberline Beispiele}{11}}
\@writefile{toc}{\contentsline {section}{\numberline {1.2}Wahrheitstabelle und disjunktive Normalform}{12}}
\@writefile{toc}{\contentsline {subsubsection}{\nonumberline Bsp.: Pumpensteuerung}{12}}
\@writefile{toc}{\contentsline {paragraph}{\nonumberline Die Wahrheitstabelle}{12}}
\@writefile{toc}{\contentsline {subsubsection}{\nonumberline PA:}{12}}
\@writefile{toc}{\contentsline {subsubsection}{\nonumberline PB:}{12}}
\@writefile{toc}{\contentsline {paragraph}{\nonumberline Beweis:}{12}}
\@writefile{toc}{\contentsline {paragraph}{\nonumberline Wie kommt man zur DNF?}{12}}
\@writefile{toc}{\contentsline {paragraph}{\nonumberline Kochrezept f\IeC {\"u}r DNF}{12}}
\@writefile{toc}{\contentsline {section}{\numberline {1.3}Vereinfachung der DNF, KV-Diagramm}{13}}
\@writefile{toc}{\contentsline {paragraph}{\nonumberline Kochrezept f\IeC {\"u}r KV-Diagramm}{13}}
\global\csname @altsecnumformattrue\endcsname
\global\@namedef{scr@dte@chapter@lastmaxnumwidth}{12.95232pt}
\global\@namedef{scr@dte@section@lastmaxnumwidth}{19.55072pt}
\global\@namedef{scr@dte@subsection@lastmaxnumwidth}{27.3266pt}
