\select@language {german}
\contentsline {part}{\numberline {I}Texte}{5}
\contentsline {chapter}{\numberline {1}Interpretation/Auswertung von Grafiken}{7}
\contentsline {section}{\numberline {1.1}Alte Schularbeit: Zufriedenheit der \IeC {\"O}sterreicher}{7}
\contentsline {part}{\numberline {II}Rechtschreibung und Grammatik}{9}
\contentsline {part}{\numberline {III}Literatur}{11}
