\relax 
\providecommand*\new@tpo@label[2]{}
\catcode `"\active 
\select@language{german}
\@writefile{toc}{\select@language{german}}
\@writefile{lof}{\select@language{german}}
\@writefile{lot}{\select@language{german}}
\@writefile{toc}{\contentsline {part}{\numberline {I}Texte}{5}}
\@writefile{toc}{\contentsline {chapter}{\numberline {1}Interpretation/Auswertung von Grafiken}{7}}
\@writefile{lof}{\addvspace {10\p@ }}
\@writefile{lot}{\addvspace {10\p@ }}
\@writefile{toc}{\contentsline {section}{\numberline {1.1}Alte Schularbeit: Zufriedenheit der \IeC {\"O}sterreicher}{7}}
\@writefile{toc}{\contentsline {part}{\numberline {II}Rechtschreibung und Grammatik}{9}}
\@writefile{toc}{\contentsline {part}{\numberline {III}Literatur}{11}}
\global\csname @altsecnumformattrue\endcsname
\global\@namedef{scr@dte@part@lastmaxnumwidth}{16.85413pt}
\global\@namedef{scr@dte@chapter@lastmaxnumwidth}{12.95232pt}
\global\@namedef{scr@dte@section@lastmaxnumwidth}{19.55072pt}
