\relax 
\catcode `"\active 
\select@language{ngerman}
\@writefile{toc}{\select@language{ngerman}}
\@writefile{lof}{\select@language{ngerman}}
\@writefile{lot}{\select@language{ngerman}}
\@writefile{toc}{\contentsline {chapter}{\numberline {1}Vorwort}{5}}
\@writefile{lof}{\addvspace {10\p@ }}
\@writefile{lot}{\addvspace {10\p@ }}
\@writefile{toc}{\contentsline {chapter}{\numberline {2}Alphabetische Modliste}{7}}
\@writefile{lof}{\addvspace {10\p@ }}
\@writefile{lot}{\addvspace {10\p@ }}
\@writefile{toc}{\contentsline {chapter}{\numberline {3}The SecretRoomsMod}{9}}
\@writefile{lof}{\addvspace {10\p@ }}
\@writefile{lot}{\addvspace {10\p@ }}
\@writefile{toc}{\contentsline {section}{\numberline {3.1}Bl\IeC {\"o}cke und Items}{10}}
\@writefile{toc}{\contentsline {subsection}{\numberline {3.1.1}Torch Lever}{11}}
\@writefile{lof}{\contentsline {figure}{\numberline {3.1}{\ignorespaces Torch Lever in der Welt platziert}}{11}}
\newlabel{theSecreteRoomsMod_torchLevel_world}{{3.1}{11}}
\@writefile{toc}{\contentsline {subsubsection}{Werte}{11}}
\@writefile{toc}{\contentsline {subsubsection}{Crafting}{11}}
\@writefile{lof}{\contentsline {figure}{\numberline {3.2}{\ignorespaces Das Crafting-Rezept}}{11}}
\newlabel{theSecretRoomsMod_torchLever_crafting}{{3.2}{11}}
\@writefile{toc}{\contentsline {subsection}{\numberline {3.1.2}One-Way Glass}{12}}
\@writefile{lof}{\contentsline {figure}{\numberline {3.3}{\ignorespaces One-Way Glass von vorne}}{12}}
\newlabel{theSecretRoomsMod_one-wayGlass_front}{{3.3}{12}}
\@writefile{lof}{\contentsline {figure}{\numberline {3.4}{\ignorespaces One-Way Glass von hinten}}{12}}
\newlabel{theSecretRoomsMod_one-wayGlass_behind}{{3.4}{12}}
\@writefile{lof}{\contentsline {figure}{\numberline {3.5}{\ignorespaces One-Way Glass schr\IeC {\"a}g von der Seite}}{13}}
\newlabel{theSecretRoomsMod_one-wayGlass_side}{{3.5}{13}}
\@writefile{toc}{\contentsline {subsubsection}{Werte}{13}}
\@writefile{toc}{\contentsline {subsubsection}{Crafting}{13}}
\@writefile{lof}{\contentsline {figure}{\numberline {3.6}{\ignorespaces Das Crafting-Rezept}}{13}}
\newlabel{theSecretRoomsMod_one-wayGlass_craffting}{{3.6}{13}}
\@writefile{toc}{\contentsline {subsection}{\numberline {3.1.3}Secret Gate}{14}}
\@writefile{toc}{\contentsline {subsection}{\numberline {3.1.4}tile.CamoDummy.name}{15}}
