\select@language {ngerman}
\contentsline {chapter}{\numberline {1}Vorwort}{5}
\contentsline {chapter}{\numberline {2}Alphabetische Modliste}{7}
\contentsline {chapter}{\numberline {3}The SecretRoomsMod}{9}
\contentsline {section}{\numberline {3.1}Bl\IeC {\"o}cke und Items}{10}
\contentsline {subsection}{\numberline {3.1.1}Torch Lever}{11}
\contentsline {subsubsection}{Werte}{11}
\contentsline {subsubsection}{Crafting}{11}
\contentsline {subsection}{\numberline {3.1.2}One-Way Glass}{12}
\contentsline {subsubsection}{Werte}{13}
\contentsline {subsubsection}{Crafting}{13}
\contentsline {subsection}{\numberline {3.1.3}Secret Gate}{14}
\contentsline {subsection}{\numberline {3.1.4}tile.CamoDummy.name}{15}
