polarSnake
------------------------------------------
#Sun

> 103.31.7.34

Have you guys seen this? Any idea what it is?
The trials actually look pretty legit - anyone know what's at the end?

------------------------------------------
> 103.31.7.34
>The trials actually look pretty legit

Uh what? It's just a website?
------------------------------------------
>just a website
Look at the source.
------------------------------------------
#Snake
What's with the ouroboros on the homepage?
------------------------------------------
#Circle
I just beat the trial of patince (Ugh, patience is the right name for that one) it seems my reward is just a number?
------------------------------------------
>just a number
What number?
------------------------------------------
This is actually pretty neat.
Trial of focus looks INTENSE - do you guys actually have the software for all those ports?
------------------------------------------
>do you guys actually have the software for all those ports?
I dont - i'd be a bit suprised if anyone here can just force their way in there.
------------------------------------------
#Circle
>What number?
Sorry, wouldn't want to spoil the race for anyone else.
It's not that bad, just go grab it yourself.

Taking a look at "Tail of Diligence" now.
(Why tail? Anyone?)
------------------------------------------
Love the trial of haste - you gotta go fast.
------------------------------------------
>Everyone here has broken into that machine
>No one has vandalized it yet
My god /el, I'm so proud of you.
------------------------------------------