\relax 
\providecommand*\new@tpo@label[2]{}
\catcode `"\active 
\select@language{german}
\@writefile{toc}{\select@language{german}}
\@writefile{lof}{\select@language{german}}
\@writefile{lot}{\select@language{german}}
\@writefile{toc}{\contentsline {part}{\numberline {I}Festigkeitslehre}{5}}
\@writefile{toc}{\contentsline {chapter}{\numberline {1}Aufgaben der Festigkeitslehre}{7}}
\@writefile{lof}{\addvspace {10\p@ }}
\@writefile{lot}{\addvspace {10\p@ }}
\@writefile{toc}{\contentsline {chapter}{\numberline {2}Das Schnittverfahren zur Bestimmung des Kr\IeC {\"a}ftesystems}{9}}
\@writefile{lof}{\addvspace {10\p@ }}
\@writefile{lot}{\addvspace {10\p@ }}
\@writefile{toc}{\contentsline {subsubsection}{\nonumberline zu 1}{9}}
\@writefile{toc}{\contentsline {paragraph}{\nonumberline Ausgangssituation}{9}}
\@writefile{toc}{\contentsline {paragraph}{\nonumberline Erkl\IeC {\"a}rung}{9}}
\@writefile{toc}{\contentsline {subsubsection}{\nonumberline zu 2}{9}}
\@writefile{toc}{\contentsline {paragraph}{\nonumberline Ausgangssituation}{9}}
\@writefile{toc}{\contentsline {paragraph}{\nonumberline Erkl\IeC {\"a}rung}{9}}
\@writefile{toc}{\contentsline {subsubsection}{\nonumberline zu 3}{9}}
\@writefile{toc}{\contentsline {paragraph}{\nonumberline Ausgangssituation}{9}}
\@writefile{toc}{\contentsline {paragraph}{\nonumberline Erkl\IeC {\"a}rung}{9}}
\@writefile{toc}{\contentsline {paragraph}{\nonumberline Fazit:}{9}}
\@writefile{toc}{\contentsline {chapter}{\numberline {3}Belastungsf\IeC {\"a}lle}{11}}
\@writefile{lof}{\addvspace {10\p@ }}
\@writefile{lot}{\addvspace {10\p@ }}
\@writefile{toc}{\contentsline {chapter}{\numberline {4}Sicherheitszahl $\nu $ (N\IeC {\"U})}{13}}
\@writefile{lof}{\addvspace {10\p@ }}
\@writefile{lot}{\addvspace {10\p@ }}
\@writefile{toc}{\contentsline {chapter}{\numberline {5}Beanspruchung- auf Zug}{15}}
\@writefile{lof}{\addvspace {10\p@ }}
\@writefile{lot}{\addvspace {10\p@ }}
\@writefile{toc}{\contentsline {subsubsection}{\nonumberline Bsp.: 661}{15}}
\@writefile{toc}{\contentsline {paragraph}{\nonumberline Angabe}{15}}
\@writefile{toc}{\contentsline {paragraph}{\nonumberline Gesucht}{15}}
\@writefile{toc}{\contentsline {paragraph}{\nonumberline Rechnung}{15}}
\@writefile{toc}{\contentsline {paragraph}{\nonumberline Ergebnis}{15}}
\@writefile{toc}{\contentsline {subsubsection}{\nonumberline Bsp.: 662}{15}}
\@writefile{toc}{\contentsline {paragraph}{\nonumberline Angabe}{15}}
\@writefile{toc}{\contentsline {paragraph}{\nonumberline Gesucht}{15}}
\@writefile{toc}{\contentsline {paragraph}{\nonumberline Rechnung}{15}}
\@writefile{toc}{\contentsline {paragraph}{\nonumberline Ergebnis}{15}}
\global\csname @altsecnumformattrue\endcsname
\global\@namedef{scr@dte@chapter@lastmaxnumwidth}{12.95232pt}
