\select@language {german}
\contentsline {part}{\numberline {I}Festigkeitslehre}{5}
\contentsline {chapter}{\numberline {1}Aufgaben der Festigkeitslehre}{7}
\contentsline {chapter}{\numberline {2}Das Schnittverfahren zur Bestimmung des Kr\IeC {\"a}ftesystems}{9}
\contentsline {subsubsection}{\nonumberline zu 1}{9}
\contentsline {paragraph}{\nonumberline Ausgangssituation}{9}
\contentsline {paragraph}{\nonumberline Erkl\IeC {\"a}rung}{9}
\contentsline {subsubsection}{\nonumberline zu 2}{9}
\contentsline {paragraph}{\nonumberline Ausgangssituation}{9}
\contentsline {paragraph}{\nonumberline Erkl\IeC {\"a}rung}{9}
\contentsline {subsubsection}{\nonumberline zu 3}{9}
\contentsline {paragraph}{\nonumberline Ausgangssituation}{9}
\contentsline {paragraph}{\nonumberline Erkl\IeC {\"a}rung}{9}
\contentsline {paragraph}{\nonumberline Fazit:}{9}
\contentsline {chapter}{\numberline {3}Belastungsf\IeC {\"a}lle}{11}
\contentsline {chapter}{\numberline {4}Sicherheitszahl $\nu $ (N\IeC {\"U})}{13}
\contentsline {chapter}{\numberline {5}Beanspruchung- auf Zug}{15}
\contentsline {subsubsection}{\nonumberline Bsp.: 661}{15}
\contentsline {paragraph}{\nonumberline Angabe}{15}
\contentsline {paragraph}{\nonumberline Gesucht}{15}
\contentsline {paragraph}{\nonumberline Rechnung}{15}
\contentsline {paragraph}{\nonumberline Ergebnis}{15}
\contentsline {subsubsection}{\nonumberline Bsp.: 662}{15}
\contentsline {paragraph}{\nonumberline Angabe}{15}
\contentsline {paragraph}{\nonumberline Gesucht}{15}
\contentsline {paragraph}{\nonumberline Rechnung}{15}
\contentsline {paragraph}{\nonumberline Ergebnis}{15}
